%YAML 1.1
%TAG !u! tag:unity3d.com,2011:
--- !u!54 &3636751
Rigidbody:
  m_ObjectHideFlags: 0
  m_CorrespondingSourceObject: {fileID: 0}
  m_PrefabInstance: {fileID: 0}
  m_PrefabAsset: {fileID: 0}
  m_GameObject: {fileID: 3604588907999236912}
  serializedVersion: 2
  m_Mass: 15
  m_Drag: 0
  m_AngularDrag: 0.05
  m_UseGravity: 1
  m_IsKinematic: 0
  m_Interpolate: 0
  m_Constraints: 0
  m_CollisionDetection: 0
--- !u!136 &3636753
CapsuleCollider:
  m_ObjectHideFlags: 0
  m_CorrespondingSourceObject: {fileID: 0}
  m_PrefabInstance: {fileID: 0}
  m_PrefabAsset: {fileID: 0}
  m_GameObject: {fileID: 3604588907999236912}
  m_Material: {fileID: 0}
  m_IsTrigger: 0
  m_Enabled: 1
  m_Radius: 0.68903
  m_Height: 1.5990368
  m_Direction: 1
  m_Center: {x: 0, y: 0, z: 0}
--- !u!114 &3636752
MonoBehaviour:
  m_ObjectHideFlags: 0
  m_CorrespondingSourceObject: {fileID: 0}
  m_PrefabInstance: {fileID: 0}
  m_PrefabAsset: {fileID: 0}
  m_GameObject: {fileID: 3604588907999236912}
  m_Enabled: 1
  m_EditorHideFlags: 0
  m_Script: {fileID: 11500000, guid: 41ca1c1b0f550e144804a73102aa7cfe, type: 3}
  m_Name: 
  m_EditorClassIdentifier: 
  hitPoints: 50
--- !u!1001 &3604588907999139216
PrefabInstance:
  m_ObjectHideFlags: 0
  serializedVersion: 2
  m_Modification:
    m_TransformParent: {fileID: 0}
    m_Modifications:
    - target: {fileID: 100000, guid: 9b6ad04ffe2454240bbc19d0ef8c3a0c, type: 3}
      propertyPath: m_Name
      value: modelBarrel Variant
      objectReference: {fileID: 0}
    - target: {fileID: 400000, guid: 9b6ad04ffe2454240bbc19d0ef8c3a0c, type: 3}
      propertyPath: m_LocalPosition.x
      value: 8.32225
      objectReference: {fileID: 0}
    - target: {fileID: 400000, guid: 9b6ad04ffe2454240bbc19d0ef8c3a0c, type: 3}
      propertyPath: m_LocalPosition.y
      value: -2.861
      objectReference: {fileID: 0}
    - target: {fileID: 400000, guid: 9b6ad04ffe2454240bbc19d0ef8c3a0c, type: 3}
      propertyPath: m_LocalPosition.z
      value: 9.0299
      objectReference: {fileID: 0}
    - target: {fileID: 400000, guid: 9b6ad04ffe2454240bbc19d0ef8c3a0c, type: 3}
      propertyPath: m_LocalRotation.x
      value: -0
      objectReference: {fileID: 0}
    - target: {fileID: 400000, guid: 9b6ad04ffe2454240bbc19d0ef8c3a0c, type: 3}
      propertyPath: m_LocalRotation.y
      value: -0
      objectReference: {fileID: 0}
    - target: {fileID: 400000, guid: 9b6ad04ffe2454240bbc19d0ef8c3a0c, type: 3}
      propertyPath: m_LocalRotation.z
      value: -0
      objectReference: {fileID: 0}
    - target: {fileID: 400000, guid: 9b6ad04ffe2454240bbc19d0ef8c3a0c, type: 3}
      propertyPath: m_LocalRotation.w
      value: 1
      objectReference: {fileID: 0}
    - target: {fileID: 400000, guid: 9b6ad04ffe2454240bbc19d0ef8c3a0c, type: 3}
      propertyPath: m_RootOrder
      value: 0
      objectReference: {fileID: 0}
    - target: {fileID: 400000, guid: 9b6ad04ffe2454240bbc19d0ef8c3a0c, type: 3}
      propertyPath: m_LocalEulerAnglesHint.x
      value: 0
      objectReference: {fileID: 0}
    - target: {fileID: 400000, guid: 9b6ad04ffe2454240bbc19d0ef8c3a0c, type: 3}
      propertyPath: m_LocalEulerAnglesHint.y
      value: 0
      objectReference: {fileID: 0}
    - target: {fileID: 400000, guid: 9b6ad04ffe2454240bbc19d0ef8c3a0c, type: 3}
      propertyPath: m_LocalEulerAnglesHint.z
      value: 0
      objectReference: {fileID: 0}
    m_RemovedComponents: []
  m_SourcePrefab: {fileID: 100100000, guid: 9b6ad04ffe2454240bbc19d0ef8c3a0c, type: 3}
--- !u!1 &3604588907999236912 stripped
GameObject:
  m_CorrespondingSourceObject: {fileID: 100000, guid: 9b6ad04ffe2454240bbc19d0ef8c3a0c,
    type: 3}
  m_PrefabInstance: {fileID: 3604588907999139216}
  m_PrefabAsset: {fileID: 0}
